{
  "kind": "Listing",
  "data": {
    "modhash": null,
    "dist": 1,
    "children": [
      {
        "kind": "t4",
        "data": {
          "first_message": null,
          "first_message_name": null,
          "subreddit": null,
          "likes": null,
          "replies": "",
          "author_fullname": "t2_jha732wi",
          "id": "11tdsdh",
          "subject": "<TEST_SUBJECT>",
          "associated_awarding_id": null,
          "score": 0,
          "author": "<TEST_AUTHOR>",
          "num_comments": null,
          "parent_id": null,
          "subreddit_name_prefixed": null,
          "new": true,
          "type": "unknown",
          "body": "<TEST_BODY>",
          "dest": "<TEST_DEST>",
          "was_comment": false,
          "body_html": "",
          "name": "t4_3twa2ic",
          "created": 1621719438.0,
          "created_utc": 1621690638.0,
          "context": "",
          "distinguished": null
        }
      }
    ],
    "after": null,
    "before": null
  }
}
